{
    "name": "UnityUtils.TimelineUtilities",
    "rootNamespace": "",
    "references": [
        "Unity.Timeline.Editor"
    ],
    "includePlatforms": [
    ],
    "excludePlatforms": [],
    "allowUnsafeCode": false,
    "overrideReferences": false,
    "precompiledReferences": [],
    "autoReferenced": true,
    "defineConstraints": [],
    "versionDefines": [],
    "noEngineReferences": false
}